<?xml version="1.0" standalone="no"?>
<!DOCTYPE svg PUBLIC "-//W3C//DTD SVG 1.1//EN" "http://www.w3.org/Graphics/SVG/1.1/DTD/svg11.dtd" >
<svg xmlns="http://www.w3.org/2000/svg">
<metadata>Generated by IcoMoon</metadata>
<defs>
<font id="gesit-icon" horiz-adv-x="1024">
<font-face units-per-em="1024" ascent="960" descent="-64" />
<missing-glyph horiz-adv-x="1024" />
<glyph unicode="&#x20;" d="" horiz-adv-x="512" />
<glyph unicode="&#xe600;" d="M214.249-21.484c40.376-26.142 87.142-43.817 144.096-42.444 56.944-1.382 103.72 16.302 144.096 42.444v105.973h-288.192v-105.973zM496.42 145.928c0 223.086 237.074 294.377 219.339 516.582-11.172 140.205-106.157 297.49-357.413 297.49-251.236 0-346.201-157.285-357.393-297.49-17.756-222.206 219.318-293.496 219.318-516.582h276.15zM109.444 654.441c10.619 133.078 101.139 200.538 248.901 200.538s238.313-67.471 248.922-200.538c5.816-72.857-36.096-121.425-92.64-200.989-41.676-58.695-90.92-127.968-113.919-218.13h-84.715c-22.999 90.162-72.222 159.425-113.919 218.13-56.524 79.564-98.446 128.132-92.63 200.989z" horiz-adv-x="717" />
<glyph unicode="&#xe601;" d="M853.333 960h-125.156c-31.425 0-45.511-25.463-45.511-56.889v-967.111h227.556v967.111c0 31.425-25.463 56.889-56.889 56.889zM512 618.667h-125.156c-31.425 0-45.511-25.463-45.511-56.889v-625.778h227.556v625.778c0 31.425-25.463 56.889-56.889 56.889zM170.667 277.333h-125.156c-31.425 0-45.511-25.463-45.511-56.889v-284.444h227.556v284.444c0 31.425-25.463 56.889-56.889 56.889z" horiz-adv-x="910" />
<glyph unicode="&#xe602;" d="M1364.234 960c12.524-62.751 18.919-125.635 18.919-188.419 0-64.949-6.395-128.833-18.919-191.617h-1322.467c-12.524 62.784-18.919 125.668-18.919 188.419 0 64.949 6.395 128.833 18.919 191.617h1322.467zM1364.234 316.036c12.524-62.751 18.919-125.635 18.919-188.419 0-64.949-6.395-128.833-18.919-191.617h-1322.467c-12.524 62.751-18.919 125.635-18.919 188.419 0 64.949 6.395 128.833 18.919 191.617h1322.467z" horiz-adv-x="1416" />
<glyph unicode="&#xe603;" d="M1024 960h-910.222c-62.578 0-113.778-51.2-113.778-113.778v-682.667c0-62.578 51.2-112.64 113.778-112.64h226.418v111.502h-227.556v524.516h912.498v-524.516h-227.556v-111.502h226.418c62.578 0 113.778 50.062 113.778 112.64v682.667c0 62.578-51.2 113.778-113.778 113.778zM147.911 770.56c-23.575 0-42.667 18.58-42.667 41.529 0 22.938 19.092 41.518 42.667 41.518s42.667-18.58 42.667-41.518c0-22.949-19.092-41.529-42.667-41.529zM261.689 770.56c-23.575 0-42.667 18.58-42.667 41.529 0 22.938 19.092 41.518 42.667 41.518s42.667-18.58 42.667-41.518c0-22.949-19.092-41.529-42.667-41.529zM1025.138 776.806h-684.942v70.554h684.942v-70.554zM565.931 551.89l-276.025-274.307h170.667v-341.584h210.716v341.572h170.667l-276.025 274.318z" horiz-adv-x="1138" />
<glyph unicode="&#xe604;" d="M453.336 352.708c0 0 68.773 425.199-162.576 601.819-5.097 3.889-9.531 5.354-13.331 5.473-3.771-0.040-8.195-1.386-13.222-5.166-227.321-171.364-148.77-598.246-148.77-598.246-169.207-132.965-128.046-152.115-31.482-386.631 18.408-44.783 50.662-34.233 65.25-1.91 14.588 32.284 46.792 103.581 46.792 103.581l183.32-2.108c0 0 33.837-72.059 49.178-104.699 15.34-32.66 47.822-43.942 65.23 0.416 91.2 232.359 131.906 250.579-40.389 387.473zM281.606 595.023c-42.329 0.495-77.017 35.193-77.512 77.542-0.485 42.329 33.432 76.246 75.761 75.761 42.329-0.475 77.037-35.193 77.522-77.522 0.495-42.349-33.422-76.265-75.77-75.78z" horiz-adv-x="572" />
<glyph unicode="&#xe605;" d="M349.096 322.204h-317.157c-8.229 40.368-12.177 80.803-12.177 121.171 0 41.766 3.948 82.866 12.177 123.234h317.157v357.592c40.457 8.14 80.736 12.177 121.171 12.177 41.766 0 82.866-4.037 123.301-12.177v-357.592h317.157c8.051-40.368 12.177-80.803 12.177-121.171 0-41.766-4.103-82.866-12.177-123.234h-317.157v-357.592c-40.457-8.051-80.892-12.177-121.349-12.177-41.766 0-82.711 4.103-123.145 12.177v357.592z" horiz-adv-x="943" />
<glyph unicode="&#xe606;" d="M1035.469 889.447c0.512 0.064 1.037 0.077 1.549 0.128-0.512-0.051-1.037-0.064-1.549-0.128zM1065.459 887.374c0.666-0.179 1.331-0.422 1.997-0.627-0.666 0.192-1.318 0.435-1.997 0.627zM1045.325 890.1c-0.384 0-0.768-0.064-1.165-0.077 0.883 0.013 1.766-0.013 2.65-0.026-0.499 0.013-0.986 0.102-1.485 0.102zM1054.22 889.498c0.704-0.077 1.408-0.128 2.112-0.23-0.704 0.102-1.408 0.141-2.112 0.23zM985.421 861.403c0.576 0.717 1.19 1.395 1.792 2.099-0.602-0.704-1.216-1.382-1.792-2.099zM999.284 874.766c0.448 0.333 0.87 0.717 1.331 1.037-0.461-0.32-0.883-0.704-1.331-1.037zM1008.013 880.449c0.666 0.371 1.344 0.678 2.022 1.024-0.678-0.358-1.357-0.666-2.022-1.024zM1024.755 887.22c0.742 0.205 1.472 0.448 2.214 0.627-0.742-0.179-1.472-0.422-2.214-0.627zM1015.975 884.225c0.87 0.358 1.741 0.691 2.611 1.024-0.87-0.333-1.741-0.666-2.611-1.024zM991.655 868.225c0.678 0.666 1.357 1.331 2.061 1.971-0.691-0.64-1.37-1.306-2.061-1.971zM1074.662 884.161c0.832-0.346 1.677-0.691 2.496-1.075-0.819 0.384-1.651 0.73-2.496 1.075zM1151.973 960h-1023.974c-70.399 0-127.998-57.599-127.998-127.998v-768.003c0-70.399 57.599-127.998 127.998-127.998h1023.974c70.399 0 127.998 57.599 127.998 127.998v768.003c0 70.399-57.599 127.998-127.998 127.998zM294.396 840.309c26.521 0 47.999-20.902 47.999-46.707s-21.478-46.707-47.999-46.707c-26.521 0-47.999 20.902-47.999 46.707s21.478 46.707 47.999 46.707zM166.398 840.309c26.521 0 47.999-20.902 47.999-46.707s-21.478-46.707-47.999-46.707c-26.521 0-47.999 20.902-47.999 46.707s21.478 46.707 47.999 46.707zM1153.88 745.654l-57.83-92.85h57.19v-588.805h-1026.522v588.805h667.742l63.782 102.399h-474.247v76.799h522.080l30.515 48.998c23.539 37.76 64.178 60.3 108.735 60.3v0c23.846 0 47.206-6.669 67.583-19.328 29.030-18.073 49.267-46.361 57.010-79.679 7.731-33.305 2.035-67.622-16.038-96.639zM980.045 853.915v0l-13.645-21.913zM1120.050 830.709c-0.102 0.435-0.256 0.858-0.371 1.293-1.088 4.339-2.496 8.589-4.326 12.685-3.008 6.758-7.014 13.107-11.955 18.829-3.29 3.814-7.002 7.334-11.097 10.509-2.048 1.587-4.211 3.085-6.451 4.48-2.829 1.754-5.734 3.226-8.678 4.582-0.832 0.384-1.664 0.717-2.496 1.075-2.381 0.986-4.787 1.843-7.206 2.586-0.666 0.205-1.331 0.448-1.997 0.627-3.021 0.819-6.067 1.459-9.126 1.894-0.704 0.102-1.408 0.141-2.112 0.23-2.47 0.282-4.941 0.461-7.411 0.499-0.883 0.013-1.766 0.038-2.65 0.026-2.394-0.038-4.774-0.192-7.142-0.448-0.512-0.051-1.037-0.064-1.549-0.128-2.867-0.371-5.696-0.922-8.499-1.6-0.742-0.179-1.472-0.422-2.214-0.627-2.086-0.576-4.134-1.229-6.17-1.971-0.883-0.32-1.754-0.666-2.611-1.024-2.022-0.832-3.994-1.754-5.939-2.765-0.666-0.346-1.357-0.653-2.022-1.024-2.547-1.408-5.018-2.944-7.398-4.646-0.461-0.32-0.883-0.704-1.331-1.037-1.92-1.434-3.776-2.944-5.568-4.57-0.704-0.64-1.382-1.306-2.061-1.971-1.536-1.498-3.021-3.085-4.442-4.736-0.602-0.691-1.216-1.37-1.792-2.099-1.894-2.368-3.712-4.826-5.35-7.45-0.013-0.013-0.013-0.026-0.026-0.038l-13.657-21.888-312.022-500.96-129.483 170.967c-1.766 2.33-3.648 4.493-5.619 6.566-0.627 0.666-1.306 1.267-1.958 1.907-1.382 1.344-2.778 2.662-4.237 3.891-0.806 0.678-1.638 1.318-2.458 1.958-1.395 1.088-2.816 2.125-4.275 3.098-0.883 0.589-1.766 1.165-2.662 1.715-1.523 0.922-3.072 1.779-4.634 2.598-0.87 0.448-1.728 0.922-2.624 1.344-1.83 0.87-3.712 1.626-5.606 2.342-0.653 0.243-1.28 0.538-1.933 0.768-2.56 0.883-5.158 1.638-7.782 2.253-0.602 0.141-1.229 0.218-1.83 0.346-2.035 0.422-4.096 0.794-6.157 1.050-0.934 0.115-1.882 0.166-2.829 0.256-1.766 0.154-3.533 0.269-5.299 0.294-0.858 0.013-1.715 0-2.573-0.013-3.571-0.051-7.142-0.294-10.688-0.845-0.294-0.051-0.589-0.128-0.883-0.179-3.379-0.563-6.72-1.408-10.035-2.432-0.627-0.192-1.254-0.358-1.882-0.576-3.392-1.152-6.72-2.573-9.971-4.224-0.653-0.333-1.293-0.704-1.946-1.050-3.328-1.818-6.605-3.814-9.728-6.17-6.336-4.8-11.725-10.393-16.115-16.537-2.931-4.096-5.427-8.435-7.462-12.941-1.318-2.906-2.381-5.901-3.315-8.934-1.254-4.019-2.24-8.128-2.816-12.288-0.333-2.432-0.563-4.877-0.666-7.334-0.205-4.915 0.051-9.856 0.794-14.745 1.856-12.237 6.707-24.204 14.707-34.777l196.874-259.978c3.648-4.813 7.795-9.113 12.339-12.877 6.822-5.632 14.553-10.022 22.822-13.017 8.269-2.982 17.075-4.557 26.060-4.557 1.165 0 2.33 0.026 3.507 0.077 25.267 1.152 48.332 14.656 61.695 36.134l384.725 617.592c5.606 8.998 9.126 18.713 10.688 28.569 0.384 2.47 0.653 4.941 0.806 7.411 0.154 2.47 0.179 4.941 0.090 7.411-0.205 4.915-0.87 9.805-1.971 14.592zM660.536 118.871c1.165 0 2.33 0.026 3.507 0.077-1.19-0.051-2.355-0.077-3.507-0.077v0zM417.3 516.87c3.123 2.368 6.4 4.352 9.728 6.17-3.328-1.805-6.605-3.802-9.728-6.17-6.336-4.8-11.725-10.393-16.115-16.537 4.39 6.144 9.779 11.737 16.115 16.537zM1120.050 830.709c-0.102 0.435-0.256 0.858-0.371 1.293v0c0.115-0.435 0.269-0.858 0.371-1.293zM481.12 530.425c2.624-0.614 5.222-1.37 7.782-2.253-2.56 0.883-5.158 1.638-7.782 2.253zM499.066 523.717c1.574-0.819 3.123-1.664 4.634-2.598-1.523 0.934-3.072 1.779-4.634 2.598zM464.993 532.37c1.766-0.038 3.533-0.141 5.299-0.294-1.754 0.154-3.52 0.269-5.299 0.294zM506.362 519.417c1.459-0.973 2.88-2.010 4.275-3.098-1.408 1.088-2.816 2.112-4.275 3.098zM451.732 531.513c3.546 0.55 7.117 0.794 10.688 0.845-3.558-0.051-7.13-0.294-10.688-0.845zM490.835 527.404c1.894-0.717 3.763-1.472 5.606-2.342-1.843 0.87-3.712 1.626-5.606 2.342zM473.133 531.82c2.074-0.256 4.122-0.627 6.157-1.050-2.048 0.422-4.096 0.794-6.157 1.050zM1120.050 830.709c1.114-4.787 1.766-9.677 1.946-14.605-0.179 4.928-0.845 9.817-1.946 14.605zM654.379 331.041l-129.483 170.967c-1.766 2.33-3.648 4.493-5.619 6.554 1.958-2.061 3.853-4.237 5.619-6.566l129.483-170.955zM428.987 524.101c3.251 1.651 6.579 3.072 9.971 4.224-3.392-1.152-6.72-2.573-9.971-4.224zM513.094 514.361c1.459-1.229 2.854-2.547 4.237-3.891-1.382 1.344-2.778 2.662-4.237 3.891zM440.826 528.901c3.302 1.037 6.656 1.869 10.035 2.432-3.379-0.563-6.72-1.408-10.035-2.432zM390.408 478.457c0.934 3.034 1.997 6.029 3.315 8.934-1.318-2.906-2.381-5.901-3.315-8.934zM1000.615 875.803c2.381 1.702 4.864 3.238 7.398 4.646-2.534-1.408-5.018-2.944-7.398-4.646zM993.716 870.196c1.792 1.626 3.648 3.136 5.568 4.57-1.92-1.434-3.776-2.944-5.568-4.57zM980.071 853.953c1.638 2.637 3.456 5.094 5.35 7.45-1.894-2.368-3.712-4.826-5.35-7.45zM987.213 863.502c1.421 1.651 2.906 3.226 4.442 4.736-1.536-1.51-3.008-3.098-4.442-4.736zM1103.41 863.515c4.941-5.722 8.934-12.070 11.955-18.829-3.021 6.746-7.014 13.107-11.955 18.829zM1010.035 881.46c1.946 0.998 3.93 1.933 5.939 2.765-2.022-0.832-3.994-1.754-5.939-2.765zM1046.809 889.998c2.47-0.051 4.941-0.218 7.411-0.499-2.47 0.282-4.941 0.448-7.411 0.499zM1056.332 889.268c3.059-0.448 6.106-1.075 9.126-1.894-3.021 0.819-6.067 1.446-9.126 1.894zM1077.171 883.086c2.944-1.344 5.862-2.829 8.678-4.582-2.829 1.754-5.734 3.238-8.678 4.582zM1067.455 886.747c2.432-0.73 4.838-1.6 7.206-2.586-2.368 0.986-4.774 1.843-7.206 2.586zM1037.017 889.575c2.368 0.256 4.749 0.41 7.142 0.448-2.394-0.038-4.774-0.179-7.142-0.448zM1018.586 885.236c2.022 0.755 4.083 1.395 6.17 1.971-2.074-0.563-4.134-1.216-6.17-1.971zM1026.97 887.847c2.803 0.691 5.632 1.229 8.499 1.6-2.867-0.371-5.696-0.909-8.499-1.6zM1103.41 863.515c-3.29 3.814-7.002 7.334-11.097 10.509 4.096-3.174 7.808-6.707 11.097-10.509zM1119.679 832.002c-1.088 4.339-2.496 8.589-4.326 12.685 1.83-4.096 3.238-8.345 4.326-12.685v0z" horiz-adv-x="1280" />
<glyph unicode="&#xe607;" d="M530.15 512.948c17.322 0 29.836-5.996 41.486-15.935 1.368-1.386 1.549-3.439 0.162-4.808-1.531-1.549-3.421-3.259-4.79-4.808-1.549-1.711-2.575-1.549-4.465 0.162-8.733 7.725-21.085 13.378-32.573 13.378-27.099 0-47.662-22.634-47.662-49.21 0-26.397 20.563-49.534 47.662-49.534 18.852 0 30.844 7.202 30.844 7.202v24.002h-19.717c-1.891 0-3.259 1.368-3.259 3.079v6.356c0 1.891 1.368 3.259 3.259 3.259h29.692c1.711 0 3.079-1.549 3.079-3.259v-39.271c0-0.846-0.684-2.215-1.368-2.737 0 0-17.484-11.326-42.35-11.326-34.283 0-61.887 27.261-61.887 61.544 0 34.301 27.603 61.905 61.887 61.905zM642.957 507.978c0 1.711 1.368 3.259 3.259 3.259h67.54c1.891 0 3.259-1.549 3.259-3.259v-4.988c0-1.711-1.386-3.259-3.259-3.259h-57.601v-41.828h49.21c1.711 0 3.259-1.531 3.259-3.259v-4.97c0-1.891-1.549-3.259-3.259-3.259h-49.21v-43.719h57.601c1.891 0 3.259-1.549 3.259-3.259v-4.97c0-1.711-1.386-3.259-3.259-3.259h-67.522c-1.891 0-3.259 1.549-3.259 3.259v113.51zM777.192 409.233c0.846 1.026 1.711 2.215 2.575 3.259 1.711 2.233 3.601 3.601 5.996 1.531 1.206-1.026 13.721-13.018 28.972-13.018 13.883 0 22.958 8.733 22.958 18.852 0 11.83-10.281 18.852-29.998 27.081-18.852 8.229-30.16 15.953-30.16 35.508 0 11.65 9.255 30.52 36.498 30.52 16.8 0 29.332-8.751 29.332-8.751 1.026-0.504 3.079-2.575 1.026-5.816-0.684-1.026-1.368-2.233-2.053-3.259-1.549-2.395-3.259-3.079-5.996-1.531-1.206 0.684-12.010 7.887-22.453 7.887-18.168 0-23.66-11.65-23.66-18.852 0-11.488 8.751-18.168 23.138-24.182 23.138-9.417 38.065-18.168 38.065-38.047 0-17.826-16.98-30.862-37.038-30.862-20.221 0-33.941 11.83-36.174 13.883-1.386 1.17-3.079 2.539-1.026 5.798zM913.965 507.978c0 1.711 1.549 3.259 3.259 3.259h20.563c1.711 0 3.259-1.549 3.259-3.259v-113.51c0-1.711-1.549-3.259-3.259-3.259h-20.563c-1.711 0-3.259 1.549-3.259 3.259v113.51zM1028.646 486.047h-24.524c-1.891 0-3.259 1.531-3.259 3.259v18.69c0 1.711 1.368 3.259 3.259 3.259h76.129c1.891 0 3.259-1.549 3.259-3.259v-18.69c0-1.711-1.386-3.259-3.259-3.259h-24.506v-91.56c0-1.711-1.549-3.259-3.259-3.259h-20.581c-1.711 0-3.259 1.549-3.259 3.259v91.56zM1001.042 311.605c-0.702 0.936-1.819 1.494-3.007 1.494h-15.989c-1.675 0-3.133-1.098-3.601-2.701-60.68-205.25-252.39-348.596-466.247-348.596-213.407 0-405.008 142.985-465.959 347.713-0.468 1.603-1.945 2.683-3.601 2.683h-15.989c-1.188 0-2.287-0.558-3.007-1.494-0.702-0.936-0.936-2.161-0.612-3.295 62.427-216.936 263.572-368.456 489.168-368.456 226.047 0 427.318 151.88 489.457 369.357 0.324 1.134 0.108 2.359-0.612 3.295zM30.43 383.106c-2.917 21.625-4.393 43.43-4.393 64.822 0 268.127 218.088 486.269 486.161 486.269 76.165 0 149.216-17.286 217.332-50.957-49.751 19.609-101.644 29.566-154.275 29.566-68.477 0-134.163-16.187-195.563-48.31 0.342 0.234 0.54 0.252 0.414 0.234-196.247-36.642-338.692-208.095-338.692-407.673 0-22.021 1.963-44.349 6.032-68.261 0.18-1.044 0.792-1.981 1.693-2.557 0.9-0.576 1.999-0.72 3.025-0.432l14.855 4.177c1.837 0.522 3.007 2.341 2.701 4.231-3.709 22.634-5.51 43.178-5.51 62.841 0 160.289 100.581 306.822 250.463 365.161-77.534-60.914-131.624-146.947-152.439-242.649v0c-26.181-53.352-40.333-110.431-42.098-169.67-0.036-1.188 0.504-2.341 1.44-3.079 0.936-0.738 2.179-0.99 3.331-0.666l15.665 4.321c1.567 0.432 2.683 1.837 2.755 3.475 1.026 24.794 4.339 49.282 9.363 72.78 0.144-21.733 2.107-43.592 6.014-66.82 0.18-1.044 0.792-1.981 1.693-2.539 0.9-0.576 1.999-0.738 3.025-0.45l14.909 4.141c1.855 0.522 3.025 2.341 2.701 4.231-3.835 23.192-5.69 44.349-5.69 64.713 0 27.333 2.845 54.81 8.409 81.657 67.036 134.505 201.469 218.052 350.846 218.052 68.567 0 136.485-18.42 196.373-53.28 38.425-37.777 68.243-82.395 88.607-132.614 0.72-1.783 2.647-2.719 4.501-2.215l14.765 4.141c1.026 0.288 1.891 1.008 2.359 1.963 0.468 0.954 0.522 2.071 0.126 3.061-9.687 24.218-21.625 47.482-35.508 69.197 20.959-20.113 39.451-42.098 54.99-65.398 0.9-1.35 2.575-1.963 4.141-1.531l15.287 4.285c1.152 0.324 2.089 1.17 2.503 2.305 0.414 1.116 0.288 2.377-0.36 3.385-34.878 53.64-82.485 99.231-137.674 131.804-77.858 75.427-179.988 117.039-287.844 117.219 38.317 11.884 78.146 17.916 118.425 17.916 81.693 0 160.289-24.632 227.289-71.232 64.461-44.817 114.050-106.92 143.418-179.556 0.72-1.783 2.665-2.755 4.501-2.215l26.703 7.526c1.044 0.288 1.909 1.026 2.377 1.999 0.468 0.972 0.486 2.107 0.054 3.115-80.811 186.758-264.274 307.452-467.435 307.452-280.695 0-509.065-228.388-509.065-509.119 0-22.994 1.639-46.545 4.88-70.025 0.144-1.080 0.756-2.035 1.657-2.629 0.612-0.414 1.332-0.612 2.071-0.612 0.342 0 0.684 0.054 1.008 0.144l14.945 4.177c1.819 0.504 2.989 2.269 2.737 4.123zM214.199 660.795c36.696 77.246 97.971 141.779 172.731 181.842 24.47 4.393 47.176 6.518 69.413 6.518 69.935 0 139.024-19.122 199.938-54.864-39.505 12.118-80.451 18.276-121.684 18.276-124.421 0-241.082-55.278-320.398-151.772zM512.198 750.068c110.701 0 212.453-60.698 265.552-158.399 0.846-1.549 2.629-2.305 4.321-1.837l14.945 4.177c1.098 0.306 1.999 1.098 2.449 2.143 0.45 1.044 0.396 2.233-0.126 3.241-56.647 107.028-166.681 173.506-287.141 173.506-179.177 0-324.954-145.776-324.954-324.954 0-6.752 0.468-13.595 0.9-19.464 0.090-1.116 0.666-2.161 1.585-2.791 0.63-0.45 1.404-0.684 2.161-0.684 0.342 0 0.684 0.054 1.008 0.144l15.143 4.231c1.693 0.468 2.827 2.053 2.737 3.817l-0.144 2.755c-0.252 3.691-0.558 7.869-0.558 12.010 0.036 166.591 135.549 302.104 302.122 302.104zM89.76 312.253h-16.313c-1.242 0-2.413-0.612-3.115-1.639-0.702-1.026-0.846-2.323-0.396-3.493 33.707-86.429 96.332-160.037 176.243-207.213 78.092-75.625 180.51-117.255 288.402-117.255 169.346 0 324.612 106.397 386.336 264.706 13.108 18.564 24.956 38.875 35.256 60.356 0.558 1.17 0.486 2.539-0.216 3.637-0.684 1.098-1.891 1.747-3.187 1.747v0l-32.537-0.054c-1.747 0-3.259-1.206-3.655-2.917-4.015-17.214-9.363-34.662-15.809-51.569l-0.090-0.234c-56.035-78.416-138.070-134-231.143-156.652 78.74 47.446 140.303 120.604 173.47 206.132 0.45 1.152 0.288 2.467-0.396 3.493-0.702 1.026-1.855 1.639-3.097 1.639h-16.313c-1.531 0-2.917-0.936-3.493-2.359-40.82-100.725-122.387-180.744-223.742-219.529-2.053-0.090-4.105-0.234-6.104-0.378-4.592-0.306-9.543-0.612-14.603-0.612-115.148 0-223.292 49.102-299.385 135.315 61.454-65.308 146.605-102.436 236.328-102.436 123.773 0 238.633 72.438 292.651 184.543 0.558 1.17 0.486 2.539-0.198 3.637-0.684 1.098-1.891 1.765-3.187 1.765h-17.124c-1.404 0-2.701-0.792-3.349-2.053-52.091-101.77-155.085-164.989-268.793-164.989-113.474 0-216.396 63.003-268.559 164.431-0.648 1.26-1.927 2.035-3.349 2.035h-17.106c-1.278 0-6.536 0-7.995 0h-17.070c-1.296 0-2.503-0.666-3.187-1.765-0.684-1.098-0.756-2.467-0.198-3.637 61.851-127.932 187.118-218.268 327.187-236.094-23.21-3.943-44.673-5.87-65.578-5.87-68.621 0-136.557 18.438-196.391 53.28-53.316 52.325-90.354 118.425-107.136 191.115-0.396 1.711-1.909 2.917-3.673 2.917h-15.881c-1.134 0-2.215-0.522-2.935-1.404s-0.99-2.053-0.738-3.169c10.515-47.536 29.584-92.893 57.007-134.487-40.838 38.839-72.24 84.826-93.343 136.665-0.576 1.476-1.963 2.395-3.493 2.395zM534.598 5.503c-69.521 0-138.286 18.96-198.804 54.54 39.091-11.884 79.658-17.898 120.55-17.898 48.688 0 97.106 8.841 144.102 26.343 0.018 0 0.036 0 0.072 0 95.504 5.69 187.064 44.223 258.062 108.54-73.374-107.46-194.321-171.525-323.982-171.525z" horiz-adv-x="1087" />
<glyph unicode="&#xe608;" d="M1047.273 960h-930.909c-64 0-116.364-52.364-116.364-116.364v-640c0-64 51.34-126.639 114.118-139.194l254.359-50.874c0 0-218.927-77.568-77.568-77.568h581.818c141.382 0-77.568 77.568-77.568 77.568l254.383 50.874c62.755 12.556 114.095 75.194 114.095 139.194v640c0 64-52.364 116.364-116.364 116.364zM1047.273 209.455h-930.909v645.818h930.909v-645.818z" horiz-adv-x="1164" />
<glyph unicode="&#xe609;" d="M945.021 186.76v125.070c0 75.536-50.045 187.915-187.915 187.915h-108.936c-76.909 0-84.066 37.735-84.426 57.191v152.293c46.45 20.066 78.979 66.233 78.979 120.048 0 72.181-58.531 130.723-130.723 130.723-72.203 0-130.723-58.542-130.723-130.723 0-53.814 32.528-99.982 78.979-120.048v-152.293c0-14.096-4.074-57.191-84.426-57.191h-108.936c-137.87 0-187.915-112.379-187.915-187.915v-125.070c-46.45-20.055-78.979-66.244-78.979-120.037 0-72.192 58.521-130.723 130.723-130.723 72.192 0 130.723 58.531 130.723 130.723 0 53.793-32.528 99.982-78.979 120.037v125.070c0 14.096 4.063 84.426 84.426 84.426h108.936c33.062 0 60.95 5 84.426 13.475v-222.981c-46.45-20.044-78.979-66.233-78.979-120.026 0-72.192 58.521-130.723 130.723-130.723 72.192 0 130.723 58.531 130.723 130.723 0 53.793-32.528 99.982-78.979 120.037v222.971c23.476-8.475 51.363-13.475 84.426-13.475h108.936c76.898 0 84.066-64.97 84.426-84.426v-125.070c-46.45-20.055-78.979-66.244-78.979-120.037 0-72.192 58.521-130.723 130.723-130.723 72.192 0 130.723 58.531 130.723 130.723 0 53.793-32.528 99.982-78.979 120.037zM206.14 66.723c0-41.646-33.781-75.417-75.417-75.417-41.646 0-75.417 33.77-75.417 75.417 0 41.646 33.77 75.417 75.417 75.417 41.635 0 75.417-33.77 75.417-75.417zM436.583 829.277c0 41.646 33.781 75.417 75.417 75.417 41.646 0 75.417-33.77 75.417-75.417 0-41.646-33.77-75.417-75.417-75.417-41.635 0-75.417 33.77-75.417 75.417zM587.417 66.723c0-41.646-33.77-75.417-75.417-75.417-41.635 0-75.417 33.77-75.417 75.417 0 41.646 33.781 75.417 75.417 75.417 41.646 0 75.417-33.77 75.417-75.417zM893.277-8.693c-41.635 0-75.417 33.77-75.417 75.417 0 41.646 33.781 75.417 75.417 75.417 41.646 0 75.417-33.77 75.417-75.417 0-41.646-33.77-75.417-75.417-75.417z" />
<glyph unicode="&#xe60a;" d="M724.46-64l-315.805 236.85h-234.496c-96.029 0-174.159 78.13-174.159 174.163v438.828c0 96.029 78.13 174.159 174.159 174.159h752.275c96.033 0 174.163-78.13 174.163-174.159v-438.828c0-96.033-78.13-174.163-174.163-174.163h-201.974v-236.85zM174.159 862.434c-42.234 0-76.593-34.359-76.593-76.593v-438.828c0-42.234 34.359-76.597 76.593-76.597h267.022l185.717-139.284v139.284h299.54c42.238 0 76.597 34.364 76.597 76.597v438.828c0 42.234-34.359 76.593-76.597 76.593h-752.279zM484.46 339.208c18.448-11.944 39.811-20.021 65.833-19.387 26.014-0.63 47.385 7.448 65.833 19.387v48.413h-131.665v-48.413zM613.377 423.822c0 101.92 108.31 134.491 100.208 236.004-5.106 64.052-48.498 135.914-163.289 135.914-114.782 0-158.163-71.861-163.281-135.914-8.114-101.517 100.196-134.084 100.196-236.004h126.165zM436.579 656.139c4.85 60.796 46.206 91.623 113.713 91.623s108.88-30.823 113.721-91.623c2.659-33.282-16.493-55.474-42.323-91.826-19.042-26.818-41.539-58.462-52.043-99.656h-38.705c-10.509 41.189-32.994 72.837-52.043 99.656-25.827 36.351-44.978 58.544-42.319 91.826z" horiz-adv-x="1101" />
</font></defs></svg>